\BOOKMARK [0][-]{chapter.1}{\376\377\004\041\004\076\004\064\004\065\004\100\004\066\004\060\004\075\004\070\004\065}{}% 1
\BOOKMARK [1][-]{section.1.1}{\376\377\004\035\004\060\004\101\004\102\004\100\004\076\004\071\004\072\004\060\000\040\000p\000a\000c\000m\000a\000n}{chapter.1}% 2
\BOOKMARK [2][-]{subsection.1.1.1}{\376\377\004\036\004\101\004\075\004\076\004\062\004\075\004\113\004\065\000\040\004\072\004\076\004\074\004\060\004\075\004\064\004\113\000\040\004\064\004\073\004\117\000\040\004\103\004\077\004\100\004\060\004\062\004\073\004\065\004\075\004\070\004\117\000\040\004\077\004\060\004\072\004\065\004\102\004\060\004\074\004\070}{section.1.1}% 3
\BOOKMARK [3][-]{subsubsection.1.1.1.1}{\376\377\004\037\004\060\004\100\004\103\000\040\004\101\004\073\004\076\004\062\000\040\004\076\004\061\000\040\000A\000U\000R\000\040\004\077\004\076\004\074\004\076\004\111\004\075\004\070\004\072\004\060\004\105}{subsection.1.1.1}% 4
\BOOKMARK [2][-]{subsection.1.1.2}{\376\377\004\036\004\061\004\075\004\076\004\062\004\073\004\065\004\075\004\070\004\065\000\040\004\072\004\073\004\116\004\107\004\065\004\071\000\040\000A\000r\000c\000h\000\040\000L\000i\000n\000u\000x}{section.1.1}% 5
\BOOKMARK [2][-]{subsection.1.1.3}{\376\377\004\022\004\072\004\073\004\116\004\107\004\065\004\075\004\070\004\065\000\040\0003\0002\000-\004\061\004\070\004\102\004\075\004\076\004\063\004\076\000\040\004\100\004\065\004\077\004\076\004\067\004\070\004\102\004\076\004\100\004\070\004\117}{section.1.1}% 6
\BOOKMARK [2][-]{subsection.1.1.4}{\376\377\004\043\004\101\004\072\004\076\004\100\004\065\004\075\004\070\004\065\000\040\004\076\004\061\004\075\004\076\004\062\004\073\004\065\004\075\004\070\004\117\000\040\004\101\004\070\004\101\004\102\004\065\004\074\004\113}{section.1.1}% 7
\BOOKMARK [2][-]{subsection.1.1.5}{\376\377\004\037\004\060\004\100\004\060\004\073\004\073\004\065\004\073\004\114\004\075\004\060\004\117\000\040\004\067\004\060\004\063\004\100\004\103\004\067\004\072\004\060\000\040\004\077\004\060\004\072\004\065\004\102\004\076\004\062}{section.1.1}% 8
\BOOKMARK [2][-]{subsection.1.1.6}{\376\377\004\036\004\102\004\072\004\073\004\116\004\107\004\065\004\075\004\070\004\065\000\040\004\102\004\060\004\071\004\074\004\060\004\103\004\102\004\076\004\062\000\040\004\077\004\100\004\070\000\040\004\067\004\060\004\063\004\100\004\103\004\067\004\072\004\065\000\040\004\077\004\060\004\072\004\065\004\102\004\076\004\062}{section.1.1}% 9
\BOOKMARK [1][-]{section.1.2}{\376\377\004\022\004\113\004\061\004\076\004\100\000\040\004\037\004\036}{chapter.1}% 10
\BOOKMARK [2][-]{subsection.1.2.1}{\376\377\004\036\004\061\004\117\004\067\004\060\004\102\004\065\004\073\004\114\004\075\004\113\004\065\000\040\004\072\000\040\004\103\004\101\004\102\004\060\004\075\004\076\004\062\004\072\004\065\000\040\004\077\004\060\004\072\004\065\004\102\004\113}{section.1.2}% 11
\BOOKMARK [2][-]{subsection.1.2.2}{\376\377\000W\000a\000y\000l\000a\000n\000d\000\040\000v\000s\000\040\000X\0001\0001}{section.1.2}% 12
\BOOKMARK [3][-]{subsubsection.1.2.2.1}{\376\377\004\037\004\060\004\072\004\065\004\102\004\113\000\040\004\064\004\073\004\117\000\040\004\100\004\060\004\061\004\076\004\102\004\113\000\040\004\101\000\040\004\060\004\100\004\105\004\070\004\062\004\060\004\074\004\070}{subsection.1.2.2}% 13
\BOOKMARK [3][-]{subsubsection.1.2.2.2}{\376\377\004\035\004\060\004\061\004\076\004\100\000\040\004\077\004\100\004\070\004\072\004\073\004\060\004\064\004\075\004\076\004\063\004\076\000\040\004\037\004\036}{subsection.1.2.2}% 14
\BOOKMARK [3][-]{subsubsection.1.2.2.3}{\376\377\004\043\004\101\004\102\004\060\004\075\004\076\004\062\004\072\004\060\000\040\000S\000t\000e\000a\000m}{subsection.1.2.2}% 15
\BOOKMARK [3][-]{subsubsection.1.2.2.4}{\376\377\000P\000i\000p\000e\000r}{subsection.1.2.2}% 16
\BOOKMARK [3][-]{subsubsection.1.2.2.5}{\376\377\004\043\004\101\004\102\004\060\004\075\004\076\004\062\004\072\004\060\000\040\004\060\004\072\004\102\004\103\004\060\004\073\004\114\004\075\004\113\004\105\000\040\004\064\004\100\004\060\004\071\004\062\004\065\004\100\004\076\004\062\000\040\004\064\004\073\004\117\000\040\004\062\004\070\004\064\004\065\004\076\004\072\004\060\004\100\004\102\004\113}{subsection.1.2.2}% 17
\BOOKMARK [4][-]{paragraph.1.2.2.5.1}{\376\377\000N\000V\000I\000D\000I\000A}{subsubsection.1.2.2.5}% 18
\BOOKMARK [4][-]{paragraph.1.2.2.5.2}{\376\377\000N\000V\000I\000D\000I\000A\000\040\000\050\0004\0007\0000\000x\000x\000\051}{subsubsection.1.2.2.5}% 19
\BOOKMARK [4][-]{paragraph.1.2.2.5.3}{\376\377\000N\000o\000u\000v\000e\000a\000u\000\040\000\050\004\042\004\076\004\073\004\114\004\072\004\076\000\040\004\064\004\073\004\117\000\040\004\101\004\102\004\060\004\100\004\113\004\105\000\040\004\062\004\070\004\064\004\065\004\076\004\072\004\060\004\100\004\102\000\051}{subsubsection.1.2.2.5}% 20
\BOOKMARK [4][-]{paragraph.1.2.2.5.4}{\376\377\000A\000M\000D}{subsubsection.1.2.2.5}% 21
\BOOKMARK [4][-]{paragraph.1.2.2.5.5}{\376\377\000I\000n\000t\000e\000l}{subsubsection.1.2.2.5}% 22
\BOOKMARK [2][-]{subsection.1.2.3}{\376\377\004\043\004\064\004\060\004\073\004\065\004\075\004\070\004\065\000\040\004\073\004\070\004\110\004\075\004\070\004\105\000\040\004\077\004\060\004\072\004\065\004\102\004\076\004\062}{section.1.2}% 23
\BOOKMARK [2][-]{subsection.1.2.4}{\376\377\004\043\004\101\004\102\004\060\004\075\004\076\004\062\004\072\004\060\000\040\004\074\004\070\004\072\004\100\004\076\004\072\004\076\004\064\004\060}{section.1.2}% 24
\BOOKMARK [2][-]{subsection.1.2.5}{\376\377\004\043\004\101\004\102\004\060\004\075\004\076\004\062\004\072\004\060\000\040\004\064\004\076\004\077\004\076\004\073\004\075\004\070\004\102\004\065\004\073\004\114\004\075\004\113\004\105\000\040\004\077\004\100\004\076\004\110\004\070\004\062\004\076\004\072}{section.1.2}% 25
\BOOKMARK [1][-]{section.1.3}{\376\377\004\035\004\060\004\101\004\102\004\100\004\076\004\071\004\072\004\060\000\040\004\064\004\100\004\060\004\071\004\062\004\065\004\100\004\076\004\062\000\040\000G\000P\000U}{chapter.1}% 26
\BOOKMARK [2][-]{subsection.1.3.1}{\376\377\004\035\004\060\004\101\004\102\004\100\004\076\004\071\004\072\004\060\000\040\004\067\004\060\004\072\004\100\004\113\004\102\004\076\004\063\004\076\000\040\004\064\004\100\004\060\004\071\004\062\004\065\004\100\004\060\000\040\000N\000V\000I\000D\000I\000A}{section.1.3}% 27
\BOOKMARK [3][-]{subsubsection.1.3.1.1}{\376\377\004\040\004\060\004\101\004\077\004\100\004\076\004\101\004\102\004\100\004\060\004\075\004\065\004\075\004\075\004\113\004\065\000\040\004\074\004\070\004\104\004\113\000\040\004\076\000\040\004\075\004\060\004\101\004\102\004\100\004\076\004\071\004\072\004\065\000\040\004\064\004\100\004\060\004\071\004\062\004\065\004\100\004\060}{subsection.1.3.1}% 28
\BOOKMARK [3][-]{subsubsection.1.3.1.2}{\376\377\004\037\004\076\004\062\004\113\004\110\004\065\004\075\004\070\004\065\000\040\004\077\004\100\004\076\004\070\004\067\004\062\004\076\004\064\004\070\004\102\004\065\004\073\004\114\004\075\004\076\004\101\004\102\004\070\000\040\000C\000P\000U\000\040\004\075\004\060\000\040\004\075\004\076\004\103\004\102\004\061\004\072\004\060\004\105\000\040\004\101\000\040\004\063\004\100\004\060\004\104\004\070\004\072\004\076\004\071\000\040\000N\000V\000I\000D\000I\000A}{subsection.1.3.1}% 29
\BOOKMARK [3][-]{subsubsection.1.3.1.3}{\376\377\004\037\004\076\004\062\004\113\004\110\004\065\004\075\004\070\004\065\000\040\004\073\004\070\004\074\004\070\004\102\004\060\000\040\000T\000D\000P\000\040\004\075\004\060\000\040\004\075\004\076\004\103\004\102\004\061\004\072\004\060\004\105\000\040\000G\000P\000U\000\040\000A\000m\000p\000e\000r\000e\000\040\004\070\000\040\004\062\004\113\004\110\004\065}{subsection.1.3.1}% 30
\BOOKMARK [3][-]{subsubsection.1.3.1.4}{\376\377\004\041\004\077\004\065\004\106\004\070\004\060\004\073\004\114\004\075\004\113\004\065\000\040\004\077\004\065\004\100\004\065\004\074\004\065\004\075\004\075\004\113\004\065\000\040\004\076\004\072\004\100\004\103\004\066\004\065\004\075\004\070\004\117}{subsection.1.3.1}% 31
\BOOKMARK [3][-]{subsubsection.1.3.1.5}{\376\377\004\024\004\076\004\061\004\060\004\062\004\073\004\065\004\075\004\070\004\065\000\040\004\064\004\100\004\060\004\071\004\062\004\065\004\100\004\076\004\062\000\040\000G\000P\000U\000\040\004\062\000\040\004\076\004\061\004\100\004\060\004\067\004\113\000\040\000i\000n\000i\000t\000r\000a\000m\000f\000s}{subsection.1.3.1}% 32
\BOOKMARK [2][-]{subsection.1.3.2}{\376\377\004\035\004\060\004\101\004\102\004\100\004\076\004\071\004\072\004\060\000\040\004\064\004\100\004\060\004\071\004\062\004\065\004\100\004\076\004\062\000\040\000M\000e\000s\000a}{section.1.3}% 33
\BOOKMARK [3][-]{subsubsection.1.3.2.1}{\376\377\004\044\004\076\004\100\004\101\004\070\004\100\004\076\004\062\004\060\004\075\004\070\004\065\000\040\004\070\004\101\004\077\004\076\004\073\004\114\004\067\004\076\004\062\004\060\004\075\004\070\004\117\000\040\000A\000M\000D\000\040\000S\000A\000M\000\040\000\050\004\042\004\076\004\073\004\114\004\072\004\076\000\040\004\064\004\073\004\117\000\040\004\076\004\077\004\113\004\102\004\075\004\113\004\105\000\040\004\077\004\076\004\073\004\114\004\067\004\076\004\062\004\060\004\102\004\065\004\073\004\065\004\071\000\051\000.}{subsection.1.3.2}% 34
\BOOKMARK [3][-]{subsubsection.1.3.2.2}{\376\377\004\040\004\065\004\110\004\065\004\075\004\070\004\065\000\040\004\077\004\100\004\076\004\061\004\073\004\065\004\074\000\040\004\100\004\060\004\061\004\076\004\102\004\113\000\040\004\063\004\100\004\060\004\104\004\070\004\072\004\070\000\040\000V\000e\000g\000a\000\040\0001\0001\000\040\000\050\004\041\004\077\004\060\004\101\004\070\004\061\004\076\000\040\000@\000V\000o\000c\000h\000a\000t\000r\000a\000k\000-\000a\000z\000-\000e\000z\000m\000\051}{subsection.1.3.2}% 35
\BOOKMARK [3][-]{subsubsection.1.3.2.3}{\376\377\004\034\004\075\004\076\004\063\004\076\004\077\004\076\004\102\004\076\004\107\004\075\004\060\004\117\000\040\000O\000p\000e\000n\000G\000L\000\040\004\076\004\061\004\100\004\060\004\061\004\076\004\102\004\072\004\060}{subsection.1.3.2}% 36
\BOOKMARK [3][-]{subsubsection.1.3.2.4}{\376\377\004\043\004\101\004\072\004\076\004\100\004\065\004\075\004\070\004\065\000\040\004\101\000\040\004\077\004\076\004\074\004\076\004\111\004\114\004\116\000\040\000O\000p\000e\000n\000C\000L}{subsection.1.3.2}% 37
\BOOKMARK [1][-]{section.1.4}{\376\377\004\023\004\070\004\061\004\100\004\070\004\064\004\075\004\060\004\117\000\040\004\063\004\100\004\060\004\104\004\070\004\072\004\060\000\040\004\062\000\040\004\075\004\076\004\103\004\102\004\061\004\103\004\072\004\060\004\105}{chapter.1}% 38
\BOOKMARK [2][-]{subsection.1.4.1}{\376\377\004\047\004\102\004\076\000\040\004\102\004\060\004\072\004\076\004\065\000\040\000P\000R\000I\000M\000E\000?}{section.1.4}% 39
\BOOKMARK [2][-]{subsection.1.4.2}{\376\377\004\035\004\060\004\101\004\102\004\100\004\076\004\071\004\072\004\060\000\040\000P\000R\000I\000M\000E}{section.1.4}% 40
\BOOKMARK [3][-]{subsubsection.1.4.2.1}{\376\377\004\024\004\070\004\075\004\060\004\074\004\070\004\107\004\065\004\101\004\072\004\076\004\065\000\040\004\103\004\077\004\100\004\060\004\062\004\073\004\065\004\075\004\070\004\065\000\040\004\077\004\070\004\102\004\060\004\075\004\070\004\065\004\074}{subsection.1.4.2}% 41
\BOOKMARK [2][-]{subsection.1.4.3}{\376\377\004\030\004\101\004\077\004\076\004\073\004\114\004\067\004\076\004\062\004\060\004\075\004\070\004\065\000\040\000P\000R\000I\000M\000E\000\040\000O\000f\000f\000l\000o\000a\000d}{section.1.4}% 42
\BOOKMARK [3][-]{subsubsection.1.4.3.1}{\376\377\004\023\004\100\004\060\004\104\004\070\004\107\004\065\004\101\004\072\004\070\004\071\000\040\004\101\004\077\004\076\004\101\004\076\004\061}{subsection.1.4.3}% 43
\BOOKMARK [4][-]{paragraph.1.4.3.1.1}{\376\377\000L\000u\000t\000r\000i\000s}{subsubsection.1.4.3.1}% 44
\BOOKMARK [4][-]{paragraph.1.4.3.1.2}{\376\377\000S\000t\000e\000a\000m}{subsubsection.1.4.3.1}% 45
\BOOKMARK [4][-]{paragraph.1.4.3.1.3}{\376\377\004\023\004\100\004\060\004\104\004\070\004\107\004\065\004\101\004\072\004\070\004\065\000\040\004\076\004\072\004\100\004\103\004\066\004\065\004\075\004\070\004\117}{subsubsection.1.4.3.1}% 46
\BOOKMARK [5][-]{subparagraph*.4}{\376\377\000K\000D\000E\000\040\000P\000l\000a\000s\000m\000a}{paragraph.1.4.3.1.3}% 47
\BOOKMARK [5][-]{subparagraph*.5}{\376\377\000C\000i\000n\000n\000a\000m\000o\000n}{paragraph.1.4.3.1.3}% 48
\BOOKMARK [5][-]{subparagraph*.6}{\376\377\000G\000N\000O\000M\000E}{paragraph.1.4.3.1.3}% 49
\BOOKMARK [2][-]{subsection.1.4.4}{\376\377\004\043\004\101\004\102\004\100\004\060\004\075\004\065\004\075\004\070\004\065\000\040\004\077\004\100\004\076\004\061\004\073\004\065\004\074\000\040\004\101\000\040\000P\000R\000I\000M\000E}{section.1.4}% 50
\BOOKMARK [3][-]{subsubsection.1.4.4.1}{\376\377\004\022\004\075\004\065\004\110\004\075\004\070\004\071\000\040\004\074\004\076\004\075\004\070\004\102\004\076\004\100\000\040\004\101\004\070\004\073\004\114\004\075\004\076\000\040\004\102\004\076\004\100\004\074\004\076\004\067\004\070\004\102}{subsection.1.4.4}% 51
\BOOKMARK [1][-]{section.1.5}{\376\377\004\043\004\101\004\072\004\076\004\100\004\065\004\075\004\070\004\065\000\040\004\067\004\060\004\063\004\100\004\103\004\067\004\072\004\070\000\040\004\101\004\070\004\101\004\102\004\065\004\074\004\113}{chapter.1}% 52
\BOOKMARK [2][-]{subsection.1.5.1}{\376\377\004\043\004\101\004\072\004\076\004\100\004\065\004\075\004\070\004\065\000\040\004\100\004\060\004\101\004\077\004\060\004\072\004\076\004\062\004\072\004\070\000\040\000i\000n\000i\000t\000r\000a\000m\000f\000s}{section.1.5}% 53
\BOOKMARK [2][-]{subsection.1.5.2}{\376\377\004\043\004\101\004\072\004\076\004\100\004\065\004\075\004\070\004\065\000\040\004\067\004\060\004\063\004\100\004\103\004\067\004\072\004\070\000\040\004\101\004\070\004\101\004\102\004\065\004\074\004\113\000\040\000c\000\040\004\077\004\076\004\074\004\076\004\111\004\114\004\116\000\040\000s\000y\000s\000t\000e\000m\000d}{section.1.5}% 54
\BOOKMARK [1][-]{section.1.6}{\376\377\004\035\004\060\004\101\004\102\004\100\004\076\004\071\004\072\004\060\000\040\004\101\004\073\004\103\004\066\004\061}{chapter.1}% 55
\BOOKMARK [2][-]{subsection.1.6.1}{\376\377\004\037\004\076\004\073\004\065\004\067\004\075\004\113\004\065\000\040\004\101\004\073\004\103\004\066\004\061\004\113}{section.1.6}% 56
\BOOKMARK [3][-]{subsubsection.1.6.1.1}{\376\377\000z\000r\000a\000m\000-\000g\000e\000n\000e\000r\000a\000t\000o\000r}{subsection.1.6.1}% 57
\BOOKMARK [3][-]{subsubsection.1.6.1.2}{\376\377\000s\000y\000s\000t\000e\000m\000d\000-\000o\000o\000m\000d}{subsection.1.6.1}% 58
\BOOKMARK [3][-]{subsubsection.1.6.1.3}{\376\377\000A\000n\000a\000n\000i\000c\000y\000\040\000C\000P\000P}{subsection.1.6.1}% 59
\BOOKMARK [3][-]{subsubsection.1.6.1.4}{\376\377\000T\000R\000I\000M}{subsection.1.6.1}% 60
\BOOKMARK [3][-]{subsubsection.1.6.1.5}{\376\377\000i\000r\000q\000b\000a\000l\000a\000n\000c\000e}{subsection.1.6.1}% 61
\BOOKMARK [2][-]{subsection.1.6.2}{\376\377\004\036\004\102\004\072\004\073\004\116\004\107\004\065\004\075\004\070\004\065\000\040\004\073\004\070\004\110\004\075\004\070\004\105\000\040\004\101\004\073\004\103\004\066\004\061}{section.1.6}% 62
\BOOKMARK [3][-]{subsubsection.1.6.2.1}{\376\377\004\041\004\073\004\103\004\066\004\061\004\113\000\040\004\070\004\075\004\064\004\065\004\072\004\101\004\070\004\100\004\076\004\062\004\060\004\075\004\070\004\117\000\040\004\104\004\060\004\071\004\073\004\076\004\062}{subsection.1.6.2}% 63
\BOOKMARK [3][-]{subsubsection.1.6.2.2}{\376\377\004\036\004\102\004\072\004\073\004\116\004\107\004\065\004\075\004\070\004\065\000\040\004\077\004\076\004\073\004\114\004\067\004\076\004\062\004\060\004\102\004\065\004\073\004\114\004\101\004\072\004\070\004\105\000\040\004\101\004\073\004\103\004\066\004\061\000\040\000G\000N\000O\000M\000E\000/\000C\000i\000n\000n\000a\000m\000o\000n}{subsection.1.6.2}% 64
\BOOKMARK [3][-]{subsubsection.1.6.2.3}{\376\377\004\036\004\102\004\072\004\073\004\116\004\107\004\065\004\075\004\070\004\065\000\040\004\075\004\065\004\075\004\103\004\066\004\075\004\113\004\105\000\040\004\101\004\073\004\103\004\066\004\061\000\040\000P\000l\000a\000s\000m\000a}{subsection.1.6.2}% 65
\BOOKMARK [1][-]{section.1.7}{\376\377\004\036\004\077\004\102\004\070\004\074\004\070\004\067\004\060\004\106\004\070\004\117\000\040\004\077\004\060\004\072\004\065\004\102\004\076\004\062}{chapter.1}% 66
\BOOKMARK [2][-]{subsection.1.7.1}{\376\377\004\035\004\060\004\101\004\102\004\100\004\076\004\071\004\072\004\060\000\040\000m\000a\000k\000e\000p\000k\000g\000.\000c\000o\000n\000f}{section.1.7}% 67
\BOOKMARK [3][-]{subsubsection.1.7.1.1}{\376\377\004\030\004\101\004\077\004\076\004\073\004\114\004\067\004\076\004\062\004\060\004\075\004\070\004\065\000\040\000t\000m\000p\000f\000s\000\040\004\064\004\073\004\117\000\040\004\101\004\061\004\076\004\100\004\072\004\070\000\040\004\062\000\040\004\036\004\027\004\043}{subsection.1.7.1}% 68
\BOOKMARK [3][-]{subsubsection.1.7.1.2}{\376\377\004\022\004\072\004\073\004\116\004\107\004\065\004\075\004\070\004\065\000\040\000c\000c\000a\000c\000h\000e}{subsection.1.7.1}% 69
\BOOKMARK [2][-]{subsection.1.7.2}{\376\377\004\044\004\076\004\100\004\101\004\070\004\100\004\076\004\062\004\060\004\075\004\070\004\065\000\040\004\070\004\101\004\077\004\076\004\073\004\114\004\067\004\076\004\062\004\060\004\075\004\070\004\117\000\040\000C\000l\000a\000n\000g\000\040\004\077\004\100\004\070\000\040\004\101\004\061\004\076\004\100\004\072\004\065\000\040\004\077\004\060\004\072\004\065\004\102\004\076\004\062}{section.1.7}% 70
\BOOKMARK [2][-]{subsection.1.7.3}{\376\377\004\043\004\101\004\102\004\060\004\075\004\076\004\062\004\072\004\060\000\040\004\076\004\077\004\102\004\070\004\074\004\070\004\067\004\070\004\100\004\076\004\062\004\060\004\075\004\075\004\113\004\105\000\040\004\077\004\060\004\072\004\065\004\102\004\076\004\062}{section.1.7}% 71
\BOOKMARK [1][-]{section.1.8}{\376\377\004\035\004\070\004\067\004\072\004\070\004\065\000\040\004\067\004\060\004\064\004\065\004\100\004\066\004\072\004\070\000\040\004\067\004\062\004\103\004\072\004\060}{chapter.1}% 72
\BOOKMARK [2][-]{subsection.1.8.1}{\376\377\000P\000i\000p\000e\000W\000i\000r\000e}{section.1.8}% 73
\BOOKMARK [3][-]{subsubsection.1.8.1.1}{\376\377\004\035\004\060\004\101\004\102\004\100\004\076\004\071\004\072\004\060\000\040\000P\000i\000p\000e\000W\000i\000r\000e}{subsection.1.8.1}% 74
\BOOKMARK [4][-]{paragraph.1.8.1.1.1}{\376\377\004\034\004\070\004\072\004\110\004\070\004\100\004\076\004\062\004\060\004\075\004\070\004\065\000\040\004\101\004\102\004\065\004\100\004\065\004\076\000\040\004\062\000\040\0005\000.\0001}{subsubsection.1.8.1.1}% 75
\BOOKMARK [4][-]{paragraph.1.8.1.1.2}{\376\377\004\030\004\101\004\077\004\100\004\060\004\062\004\073\004\065\004\075\004\070\004\065\000\040\004\105\004\100\004\070\004\077\004\076\004\062\000\040\004\077\004\076\004\064\000\040\004\075\004\060\004\063\004\100\004\103\004\067\004\072\004\076\004\071}{subsubsection.1.8.1.1}% 76
\BOOKMARK [3][-]{subsubsection.1.8.1.2}{\376\377\000J\000A\000C\000K}{subsection.1.8.1}% 77
\BOOKMARK [1][-]{section.1.9}{\376\377\004\037\004\100\004\076\004\104\004\070\004\073\004\060\004\072\004\102\004\070\004\072\004\060\000\040\004\064\004\070\004\101\004\072\004\060}{chapter.1}% 78
\BOOKMARK [2][-]{subsection.1.9.1}{\376\377\004\047\004\070\004\101\004\102\004\072\004\060\000\040\004\077\004\100\004\070\000\040\004\077\004\076\004\074\004\076\004\111\004\070\000\040\000B\000l\000e\000a\000c\000h\000b\000i\000t}{section.1.9}% 79
\BOOKMARK [2][-]{subsection.1.9.2}{\376\377\004\020\004\062\004\102\004\076\004\074\004\060\004\102\004\070\004\107\004\065\004\101\004\072\004\060\004\117\000\040\004\076\004\107\004\070\004\101\004\102\004\072\004\060\000\040\004\072\004\115\004\110\004\060\000\040\000p\000a\000c\000m\000a\000n}{section.1.9}% 80
\BOOKMARK [2][-]{subsection.1.9.3}{\376\377\004\036\004\077\004\102\004\070\004\074\004\070\004\067\004\060\004\106\004\070\004\117\000\040\004\061\004\060\004\067\000\040\004\064\004\060\004\075\004\075\004\113\004\105\000\040\000S\000Q\000L\000i\000t\000e}{section.1.9}% 81
\BOOKMARK [1][-]{section.1.10}{\376\377\004\040\004\060\004\067\004\063\004\076\004\075\000\040\004\074\004\076\004\075\004\070\004\102\004\076\004\100\004\060}{chapter.1}% 82
\BOOKMARK [2][-]{subsection.1.10.1}{\376\377\004\037\004\076\004\064\004\063\004\076\004\102\004\076\004\062\004\072\004\060}{section.1.10}% 83
\BOOKMARK [2][-]{subsection.1.10.2}{\376\377\004\030\004\101\004\077\004\076\004\073\004\114\004\067\004\076\004\062\004\060\004\075\004\070\004\065\000\040\004\100\004\065\004\064\004\060\004\072\004\102\004\076\004\100\004\060\000\040\000w\000x\000e\000d\000i\000d}{section.1.10}% 84
\BOOKMARK [1][-]{section.1.11}{\376\377\004\035\004\060\004\101\004\102\004\100\004\076\004\071\004\072\004\060\000\040\004\077\004\060\004\100\004\060\004\074\004\065\004\102\004\100\004\076\004\062\000\040\004\117\004\064\004\100\004\060}{chapter.1}% 85
\BOOKMARK [2][-]{subsection.1.11.1}{\376\377\004\022\004\062\004\065\004\064\004\065\004\075\004\070\004\065}{section.1.11}% 86
\BOOKMARK [3][-]{subsubsection.1.11.1.1}{\376\377\004\027\004\060\004\107\004\065\004\074\000?}{subsection.1.11.1}% 87
\BOOKMARK [3][-]{subsubsection.1.11.1.2}{\376\377\004\022\004\070\004\064\004\113\000\040\004\075\004\060\004\101\004\102\004\100\004\076\004\065\004\072}{subsection.1.11.1}% 88
\BOOKMARK [4][-]{paragraph.1.11.1.2.1}{\376\377\000s\000y\000s\000c\000t\000l}{subsubsection.1.11.1.2}% 89
\BOOKMARK [4][-]{paragraph.1.11.1.2.2}{\376\377\000t\000m\000p\000f\000i\000l\000e\000s\000.\000d}{subsubsection.1.11.1.2}% 90
\BOOKMARK [4][-]{paragraph.1.11.1.2.3}{\376\377\000u\000d\000e\000v}{subsubsection.1.11.1.2}% 91
\BOOKMARK [2][-]{subsection.1.11.2}{\376\377\004\036\004\077\004\102\004\070\004\074\004\070\004\067\004\060\004\106\004\070\004\117\000\040\004\062\004\062\004\076\004\064\004\060\000/\004\062\004\113\004\062\004\076\004\064\004\060}{section.1.11}% 92
\BOOKMARK [3][-]{subsubsection.1.11.2.1}{\376\377\004\036\004\061\004\111\004\070\004\065\000\040\004\101\004\062\004\065\004\064\004\065\004\075\004\070\004\117}{subsection.1.11.2}% 93
\BOOKMARK [3][-]{subsubsection.1.11.2.2}{\376\377\004\035\004\060\004\101\004\102\004\100\004\076\004\071\004\072\004\060\000\040\004\077\004\076\004\064\004\072\004\060\004\107\004\072\004\070}{subsection.1.11.2}% 94
\BOOKMARK [4][-]{paragraph.1.11.2.2.1}{\376\377\000Z\000R\000A\000M}{subsubsection.1.11.2.2}% 95
\BOOKMARK [4][-]{paragraph.1.11.2.2.2}{\376\377\004\036\004\102\004\072\004\073\004\116\004\107\004\065\004\075\004\070\004\065\000\040\004\103\004\077\004\100\004\065\004\066\004\064\004\060\004\116\004\111\004\065\004\063\004\076\000\040\004\107\004\102\004\065\004\075\004\070\004\117}{subsubsection.1.11.2.2}% 96
\BOOKMARK [3][-]{subsubsection.1.11.2.3}{\376\377\004\020\004\073\004\063\004\076\004\100\004\070\004\102\004\074\000\040\000M\000G\000L\000R\000U}{subsection.1.11.2}% 97
\BOOKMARK [4][-]{paragraph.1.11.2.3.1}{\376\377\004\027\004\060\004\111\004\070\004\102\004\060\000\040\004\076\004\102\000\040\000P\000a\000g\000e\000\040\000T\000r\000a\000s\000h\000i\000n\000g}{subsubsection.1.11.2.3}% 98
\BOOKMARK [3][-]{subsubsection.1.11.2.4}{\376\377\004\035\004\060\004\101\004\102\004\100\004\076\004\071\004\072\004\060\000\040\004\063\004\100\004\117\004\067\004\075\004\113\004\105\000\040\004\101\004\102\004\100\004\060\004\075\004\070\004\106}{subsection.1.11.2}% 99
\BOOKMARK [3][-]{subsubsection.1.11.2.5}{\376\377\004\035\004\060\004\101\004\102\004\100\004\076\004\071\004\072\004\060\000\040\004\072\004\115\004\110\004\060\000\040\000V\000F\000S}{subsection.1.11.2}% 100
\BOOKMARK [3][-]{subsubsection.1.11.2.6}{\376\377\004\035\004\060\004\101\004\102\004\100\004\076\004\071\004\072\004\060\000\040\004\077\004\073\004\060\004\075\004\070\004\100\004\076\004\062\004\111\004\070\004\072\004\076\004\062\000\040\004\062\004\062\004\076\004\064\004\060\000/\004\062\004\113\004\062\004\076\004\064\004\060}{subsection.1.11.2}% 101
\BOOKMARK [3][-]{subsubsection.1.11.2.7}{\376\377\004\043\004\062\004\065\004\073\004\070\004\107\004\065\004\075\004\070\004\065\000\040\004\100\004\060\004\067\004\074\004\065\004\100\004\060\000\040\004\072\004\060\004\100\004\102\004\113\000\040\004\077\004\060\004\074\004\117\004\102\004\070\000\040\004\077\004\100\004\076\004\106\004\065\004\101\004\101\004\060}{subsection.1.11.2}% 102
\BOOKMARK [3][-]{subsubsection.1.11.2.8}{\376\377\004\036\004\102\004\072\004\073\004\116\004\107\004\065\004\075\004\070\004\065\000\040\004\074\004\075\004\076\004\063\004\076\004\101\004\102\004\103\004\077\004\065\004\075\004\107\004\060\004\102\004\076\004\063\004\076\000\040\004\062\004\072\004\073\004\116\004\107\004\065\004\075\004\070\004\117\000\040\004\064\004\070\004\101\004\072\004\076\004\062}{subsection.1.11.2}% 103
\BOOKMARK [2][-]{subsection.1.11.3}{\376\377\004\036\004\077\004\102\004\070\004\074\004\070\004\067\004\060\004\106\004\070\004\117\000\040\004\100\004\060\004\061\004\076\004\102\004\113\000\040\000C\000P\000U}{section.1.11}% 104
\BOOKMARK [3][-]{subsubsection.1.11.3.1}{\376\377\004\034\004\060\004\101\004\110\004\102\004\060\004\061\004\070\004\100\004\076\004\062\004\060\004\075\004\070\004\065\000\040\004\107\004\060\004\101\004\102\004\076\004\102\004\113\000\040\000C\000P\000U}{subsection.1.11.3}% 105
\BOOKMARK [4][-]{paragraph.1.11.3.1.1}{\376\377\004\037\004\076\004\073\004\070\004\102\004\070\004\072\004\070\000\040\004\074\004\060\004\101\004\110\004\102\004\060\004\061\004\070\004\100\004\076\004\062\004\060\004\075\004\070\004\117\000\040\004\107\004\060\004\101\004\102\004\076\004\102\004\113}{subsubsection.1.11.3.1}% 106
\BOOKMARK [4][-]{paragraph.1.11.3.1.2}{\376\377\004\020\004\073\004\114\004\102\004\065\004\100\004\075\004\060\004\102\004\070\004\062\004\075\004\113\004\065\000\040\004\064\004\100\004\060\004\071\004\062\004\065\004\100\004\113\000\040\004\074\004\060\004\101\004\110\004\102\004\060\004\061\004\070\004\100\004\076\004\062\004\060\004\075\004\070\004\117}{subsubsection.1.11.3.1}% 107
\BOOKMARK [4][-]{paragraph.1.11.3.1.3}{\376\377\004\035\004\060\004\101\004\102\004\100\004\076\004\071\004\072\004\060\000\040\004\077\004\060\004\100\004\060\004\074\004\065\004\102\004\100\004\076\004\062\000\040\004\074\004\060\004\101\004\110\004\102\004\060\004\061\004\070\004\100\004\076\004\062\004\060\004\075\004\070\004\117}{subsubsection.1.11.3.1}% 108
\BOOKMARK [3][-]{subsubsection.1.11.3.2}{\376\377\004\036\004\102\004\072\004\073\004\116\004\107\004\065\004\075\004\070\004\065\000\040\004\101\004\102\004\076\004\100\004\076\004\066\004\065\004\062\004\113\004\105\000\040\004\102\004\060\004\071\004\074\004\065\004\100\004\076\004\062}{subsection.1.11.3}% 109
\BOOKMARK [3][-]{subsubsection.1.11.3.3}{\376\377\004\036\004\102\004\072\004\073\004\116\004\107\004\065\004\075\004\070\004\065\000\040\004\067\004\060\004\111\004\070\004\102\004\113\000\040\004\076\004\102\000\040\004\103\004\117\004\067\004\062\004\070\004\074\004\076\004\101\004\102\004\065\004\071\000\040\000\050\004\077\004\076\000\040\004\066\004\065\004\073\004\060\004\075\004\070\004\116\000\051}{subsection.1.11.3}% 110
\BOOKMARK [1][-]{section.1.12}{\376\377\004\044\004\060\004\071\004\073\004\076\004\062\004\113\004\065\000\040\004\101\004\070\004\101\004\102\004\065\004\074\004\113}{chapter.1}% 111
\BOOKMARK [2][-]{subsection.1.12.1}{\376\377\004\035\004\116\004\060\004\075\004\101\004\113\000\040\004\062\004\113\004\061\004\076\004\100\004\060\000\040\004\104\004\060\004\071\004\073\004\076\004\062\004\076\004\071\000\040\004\101\004\070\004\101\004\102\004\065\004\074\004\113\000\040\004\070\000\040\004\104\004\073\004\060\004\063\004\076\004\062\000\040\004\074\004\076\004\075\004\102\004\070\004\100\004\076\004\062\004\060\004\075\004\070\004\117}{section.1.12}% 112
\BOOKMARK [2][-]{subsection.1.12.2}{\376\377\004\036\004\061\004\113\004\107\004\075\004\113\004\065\000\040\004\101\004\070\004\101\004\102\004\065\004\074\004\113}{section.1.12}% 113
\BOOKMARK [3][-]{subsubsection.1.12.2.1}{\376\377\004\044\004\060\004\071\004\073\004\076\004\062\004\060\004\117\000\040\004\101\004\070\004\101\004\102\004\065\004\074\004\060\000\040\000e\000x\000t\0004}{subsection.1.12.2}% 114
\BOOKMARK [4][-]{paragraph.1.12.2.1.1}{\376\377\004\035\004\060\004\101\004\102\004\100\004\076\004\071\004\072\004\060\000\040\004\062\004\075\004\065\004\110\004\075\004\065\004\063\004\076\000\040\004\066\004\103\004\100\004\075\004\060\004\073\004\060\000\040\000e\000x\000t\0004}{subsubsection.1.12.2.1}% 115
\BOOKMARK [4][-]{paragraph.1.12.2.1.2}{\376\377\004\036\004\077\004\102\004\070\004\074\004\060\004\073\004\114\004\075\004\113\004\065\000\040\004\077\004\060\004\100\004\060\004\074\004\065\004\102\004\100\004\113\000\040\004\074\004\076\004\075\004\102\004\070\004\100\004\076\004\062\004\060\004\075\004\070\004\117\000\040\004\064\004\073\004\117\000\040\000e\000x\000t\0004}{subsubsection.1.12.2.1}% 116
\BOOKMARK [3][-]{subsubsection.1.12.2.2}{\376\377\004\044\004\060\004\071\004\073\004\076\004\062\004\060\004\117\000\040\004\101\004\070\004\101\004\102\004\065\004\074\004\060\000\040\000X\000F\000S}{subsection.1.12.2}% 117
\BOOKMARK [3][-]{subsubsection.1.12.2.3}{\376\377\004\044\004\060\004\071\004\073\004\076\004\062\004\060\004\117\000\040\004\101\004\070\004\101\004\102\004\065\004\074\004\060\000\040\000F\0002\000F\000S}{subsection.1.12.2}% 118
\BOOKMARK [2][-]{subsection.1.12.3}{\376\377\004\041\004\070\004\101\004\102\004\065\004\074\004\113\000\040\000C\000o\000W}{section.1.12}% 119
\BOOKMARK [3][-]{subsubsection.1.12.3.1}{\376\377\004\044\004\060\004\071\004\073\004\076\004\062\004\060\004\117\000\040\004\101\004\070\004\101\004\102\004\065\004\074\004\060\000\040\000b\000t\000r\000f\000s}{subsection.1.12.3}% 120
\BOOKMARK [4][-]{paragraph.1.12.3.1.1}{\376\377\004\036\004\077\004\102\004\070\004\074\004\060\004\073\004\114\004\075\004\113\004\065\000\040\004\104\004\073\004\060\004\063\004\070\000\040\004\074\004\076\004\075\004\102\004\070\004\100\004\076\004\062\004\060\004\075\004\070\004\117}{subsubsection.1.12.3.1}% 121
\BOOKMARK [4][-]{paragraph.1.12.3.1.2}{\376\377\004\041\004\066\004\060\004\102\004\070\004\065\000\040\004\062\000\040\004\104\004\060\004\071\004\073\004\076\004\062\004\076\004\071\000\040\004\101\004\070\004\101\004\102\004\065\004\074\004\065\000\040\000B\000t\000r\000f\000s}{subsubsection.1.12.3.1}% 122
\BOOKMARK [4][-]{paragraph.1.12.3.1.3}{\376\377\004\036\004\077\004\100\004\065\004\064\004\065\004\073\004\065\004\075\004\070\004\065\000\040\004\115\004\104\004\104\004\065\004\072\004\102\004\070\004\062\004\075\004\076\004\101\004\102\004\070\000\040\004\101\004\066\004\060\004\102\004\070\004\117}{subsubsection.1.12.3.1}% 123
\BOOKMARK [4][-]{paragraph.1.12.3.1.4}{\376\377\004\041\004\072\004\076\004\100\004\076\004\101\004\102\004\114\000\040\004\076\004\061\004\100\004\060\004\061\004\076\004\102\004\072\004\070\000\040\004\060\004\073\004\063\004\076\004\100\004\070\004\102\004\074\004\060\000\040\000z\000s\000t\000d\000\040\004\075\004\060\000\040\004\077\004\100\004\070\004\074\004\065\004\100\004\065\000\040\000A\000M\000D\000\040\000R\000y\000z\000e\000n\000\040\0007\000\040\0003\0007\0000\0000\000X}{subsubsection.1.12.3.1}% 124
\BOOKMARK [4][-]{paragraph.1.12.3.1.5}{\376\377\004\041\004\077\004\070\004\101\004\076\004\072\000\040\004\077\004\100\004\076\004\102\004\065\004\101\004\102\004\070\004\100\004\076\004\062\004\060\004\075\004\075\004\113\004\105\000\040\004\070\004\063\004\100\000\040\004\075\004\060\000\040\004\115\004\104\004\104\004\065\004\072\004\102\004\070\004\062\004\075\004\076\004\101\004\102\004\114\000\040\004\101\004\066\004\060\004\102\004\070\004\117\000\040\000\050\004\041\004\077\004\060\004\101\004\070\004\061\004\076\000\040\000@\000d\000e\000w\000d\000p\000o\000l\000!\000\051}{subsubsection.1.12.3.1}% 125
\BOOKMARK [5][-]{subparagraph*.44}{\376\377\004\037\004\100\004\076\004\074\004\065\004\066\004\103\004\102\004\076\004\107\004\075\004\113\004\065\000\040\004\100\004\065\004\067\004\103\004\073\004\114\004\102\004\060\004\102\004\113}{paragraph.1.12.3.1.5}% 126
\BOOKMARK [3][-]{subsubsection.1.12.3.2}{\376\377\004\044\004\060\004\071\004\073\004\076\004\062\004\060\004\117\000\040\004\101\004\070\004\101\004\102\004\065\004\074\004\060\000\040\000b\000c\000a\000c\000h\000e\000f\000s}{subsection.1.12.3}% 127
\BOOKMARK [1][-]{section.1.13}{\376\377\000W\000i\000n\000e\000\040\000/\000\040\000L\000i\000n\000u\000x\000\040\000G\000a\000m\000i\000n\000g}{chapter.1}% 128
\BOOKMARK [2][-]{subsection.1.13.1}{\376\377\004\036\004\101\004\075\004\076\004\062\004\075\004\113\004\065\000\040\004\101\004\076\004\101\004\102\004\060\004\062\004\073\004\117\004\116\004\111\004\070\004\065}{section.1.13}% 129
\BOOKMARK [3][-]{subsubsection.1.13.1.1}{\376\377\004\047\004\102\004\076\000\040\004\102\004\060\004\072\004\076\004\065\000\040\000W\000i\000n\000e\000?}{subsection.1.13.1}% 130
\BOOKMARK [3][-]{subsubsection.1.13.1.2}{\376\377\004\041\004\061\004\076\004\100\004\072\004\070\000\040\000W\000i\000n\000e}{subsection.1.13.1}% 131
\BOOKMARK [3][-]{subsubsection.1.13.1.3}{\376\377\004\043\004\101\004\102\004\060\004\075\004\076\004\062\004\072\004\060\000\040\000w\000i\000n\000e\000-\000p\000u\000r\000e}{subsection.1.13.1}% 132
\BOOKMARK [4][-]{paragraph.1.13.1.3.1}{\376\377\000P\000r\000o\000t\000o\000n\000-\000G\000E\000-\000C\000u\000s\000t\000o\000m}{subsubsection.1.13.1.3}% 133
\BOOKMARK [3][-]{subsubsection.1.13.1.4}{\376\377\004\030\004\101\004\077\004\076\004\073\004\114\004\067\004\076\004\062\004\060\004\075\004\070\004\065\000\040\000W\000i\000n\000e}{subsection.1.13.1}% 134
\BOOKMARK [4][-]{paragraph.1.13.1.4.1}{\376\377\004\035\004\060\004\101\004\102\004\100\004\076\004\071\004\072\004\060\000\040\004\077\004\100\004\065\004\104\004\070\004\072\004\101\004\060}{subsubsection.1.13.1.4}% 135
\BOOKMARK [5][-]{subparagraph*.46}{\376\377\004\030\004\067\004\076\004\073\004\117\004\106\004\070\004\117\000\040\000W\000i\000n\000e\000\040\004\077\004\100\004\076\004\063\004\100\004\060\004\074\004\074\000\040\004\076\004\102\000\040\004\064\004\076\004\101\004\102\004\103\004\077\004\060\000\040\004\072\000\040\004\104\004\060\004\071\004\073\004\076\004\062\004\076\004\071\000\040\004\101\004\070\004\101\004\102\004\065\004\074\004\065}{paragraph.1.13.1.4.1}% 136
\BOOKMARK [5][-]{subparagraph*.47}{\376\377\004\037\004\100\004\076\004\061\004\073\004\065\004\074\004\060\000\040\004\077\004\076\004\102\004\065\004\100\004\070\000\040\004\103\004\077\004\100\004\060\004\062\004\073\004\065\004\075\004\070\004\117\000\040\004\077\004\100\004\070\000\040\004\101\004\074\004\065\004\075\004\070\000\040\004\104\004\076\004\072\004\103\004\101\004\060\000\040\004\075\004\060\000\040\004\064\004\100\004\103\004\063\004\076\004\065\000\040\004\076\004\072\004\075\004\076}{paragraph.1.13.1.4.1}% 137
\BOOKMARK [5][-]{subparagraph*.48}{\376\377\004\030\004\101\004\077\004\100\004\060\004\062\004\073\004\065\004\075\004\070\004\065\000\040\004\107\004\121\004\100\004\075\004\113\004\105\000\040\004\076\004\072\004\076\004\075\000\040\004\073\004\060\004\103\004\075\004\107\004\065\004\100\004\076\004\062\000\040\004\075\004\060\000\040\004\061\004\060\004\067\004\065\000\040\000.\000N\000E\000T}{paragraph.1.13.1.4.1}% 138
\BOOKMARK [5][-]{subparagraph*.49}{\376\377\004\030\004\101\004\077\004\100\004\060\004\062\004\073\004\065\004\075\004\070\004\065\000\040\004\107\004\121\004\100\004\075\004\113\004\105\000\040\004\076\004\072\004\076\004\075\000\040\004\073\004\060\004\103\004\075\004\107\004\065\004\100\004\076\004\062\000\040\004\075\004\060\000\040\004\061\004\060\004\067\004\065\000\040\000C\000E\000F}{paragraph.1.13.1.4.1}% 139
\BOOKMARK [3][-]{subsubsection.1.13.1.5}{\376\377\000D\000X\000V\000K}{subsection.1.13.1}% 140
\BOOKMARK [3][-]{subsubsection.1.13.1.6}{\376\377\000v\000k\000d\0003\000d}{subsection.1.13.1}% 141
\BOOKMARK [3][-]{subsubsection.1.13.1.7}{\376\377\004\037\004\076\004\073\004\065\004\067\004\075\004\113\004\065\000\040\004\101\004\101\004\113\004\073\004\072\004\070\000\040\004\077\004\076\000\040\004\102\004\065\004\074\004\065\000\040\000W\000i\000n\000e\000\040\004\070\000\040\000D\000X\000V\000K}{subsection.1.13.1}% 142
\BOOKMARK [2][-]{subsection.1.13.2}{\376\377\004\024\004\076\004\077\004\076\004\073\004\075\004\070\004\102\004\065\004\073\004\114\004\075\004\113\004\065\000\040\004\072\004\076\004\074\004\077\004\076\004\075\004\065\004\075\004\102\004\113}{section.1.13}% 143
\BOOKMARK [3][-]{subsubsection.1.13.2.1}{\376\377\000L\000u\000t\000r\000i\000s}{subsection.1.13.2}% 144
\BOOKMARK [3][-]{subsubsection.1.13.2.2}{\376\377\000G\000a\000m\000e\000m\000o\000d\000e}{subsection.1.13.2}% 145
\BOOKMARK [3][-]{subsubsection.1.13.2.3}{\376\377\004\030\004\101\004\077\004\076\004\073\004\114\004\067\004\076\004\062\004\060\004\075\004\070\004\065\000\040\000D\000L\000S\000S\000\040\004\101\000\040\004\062\004\070\004\064\004\065\004\076\004\072\004\060\004\100\004\102\004\060\004\074\004\070\000\040\000N\000V\000I\000D\000I\000A\000\040\004\107\004\065\004\100\004\065\004\067\000\040\000P\000r\000o\000t\000o\000n}{subsection.1.13.2}% 146
\BOOKMARK [3][-]{subsubsection.1.13.2.4}{\376\377\000G\000a\000m\000e\000s\000c\000o\000p\000e}{subsection.1.13.2}% 147
\BOOKMARK [4][-]{paragraph.1.13.2.4.1}{\376\377\004\027\004\060\004\077\004\103\004\101\004\072\000\040\000g\000a\000m\000e\000s\000c\000o\000p\000e\000\040\004\062\000\040\004\076\004\102\004\064\004\065\004\073\004\114\004\075\004\076\004\074\000\040\000t\000t\000y}{subsubsection.1.13.2.4}% 148
\BOOKMARK [3][-]{subsubsection.1.13.2.5}{\376\377\004\034\004\076\004\075\004\070\004\102\004\076\004\100\004\070\004\075\004\063\000\040\000F\000P\000S\000\040\004\062\000\040\004\070\004\063\004\100\004\060\004\105\000.}{subsection.1.13.2}% 149
\BOOKMARK [4][-]{paragraph.1.13.2.5.1}{\376\377\000M\000a\000n\000g\000o\000h\000u\000d}{subsubsection.1.13.2.5}% 150
\BOOKMARK [4][-]{paragraph.1.13.2.5.2}{\376\377\004\020\004\073\004\114\004\102\004\065\004\100\004\075\004\060\004\102\004\070\004\062\004\060\000:\000\040\000D\000X\000V\000K\000\040\000H\000u\000d\000\040\000\050\004\042\004\076\004\073\004\114\004\072\004\076\000\040\004\064\004\073\004\117\000\040\004\070\004\063\004\100\000\040\004\067\004\060\004\077\004\103\004\101\004\072\004\060\004\065\004\074\004\113\004\105\000\040\004\107\004\065\004\100\004\065\004\067\000\040\000W\000i\000n\000e\000/\000P\000r\000o\000t\000o\000n\000\051}{subsubsection.1.13.2.5}% 151
\BOOKMARK [3][-]{subsubsection.1.13.2.6}{\376\377\004\035\004\060\004\101\004\102\004\100\004\076\004\071\004\072\004\060\000\040\004\063\004\065\004\071\004\074\004\077\004\060\004\064\004\076\004\062\000\040\000X\000b\000o\000x}{subsection.1.13.2}% 152
\BOOKMARK [4][-]{paragraph.1.13.2.6.1}{\376\377\004\035\004\060\004\101\004\102\004\100\004\076\004\071\004\072\004\060\000\040\004\101\004\102\004\060\004\075\004\064\004\060\004\100\004\102\004\075\004\076\004\063\004\076\000\040\000x\000p\000a\000d}{subsubsection.1.13.2.6}% 153
\BOOKMARK [4][-]{paragraph.1.13.2.6.2}{\376\377\004\024\004\100\004\060\004\071\004\062\004\065\004\100\000\040\000x\000p\000a\000d\000n\000e\000o\000\040\004\101\000\040\004\077\004\076\004\064\004\064\004\065\004\100\004\066\004\072\004\076\004\071\000\040\000B\000l\000u\000e\000t\000o\000o\000t\000h}{subsubsection.1.13.2.6}% 154
\BOOKMARK [1][-]{section.1.14}{\376\377\004\036\004\072\004\076\004\075\004\075\004\113\004\071\000\040\004\074\004\065\004\075\004\065\004\064\004\066\004\065\004\100\000\040\000r\000i\000v\000e\000r}{chapter.1}% 155
\BOOKMARK [2][-]{subsection.1.14.1}{\376\377\004\032\004\076\004\075\004\104\004\070\004\063\000\040\000r\000i\000v\000e\000r}{section.1.14}% 156
\BOOKMARK [2][-]{subsection.1.14.2}{\376\377\004\035\004\060\004\101\004\102\004\100\004\076\004\071\004\072\004\060\000\040\000r\000i\000v\000e\000r}{section.1.14}% 157
\BOOKMARK [3][-]{subsubsection.1.14.2.1}{\376\377\004\035\004\060\004\067\004\075\004\060\004\107\004\065\004\075\004\070\004\065\000\040\004\072\004\073\004\060\004\062\004\070\004\110}{subsection.1.14.2}% 158
\BOOKMARK [3][-]{subsubsection.1.14.2.2}{\376\377\004\035\004\060\004\101\004\102\004\100\004\076\004\071\004\072\004\060\000\040\004\100\004\060\004\101\004\072\004\073\004\060\004\064\004\072\004\070\000\040\004\072\004\073\004\060\004\062\004\070\004\060\004\102\004\103\004\100\004\113}{subsection.1.14.2}% 159
\BOOKMARK [3][-]{subsubsection.1.14.2.3}{\376\377\004\035\004\060\004\101\004\102\004\100\004\076\004\071\004\072\004\060\000\040\004\074\004\065\004\064\004\070\004\060\000-\004\072\004\073\004\060\004\062\004\070\004\110\000\040\004\070\004\073\004\070\000\040\004\103\004\101\004\102\004\100\004\076\004\071\004\101\004\102\004\062}{subsection.1.14.2}% 160
\BOOKMARK [3][-]{subsubsection.1.14.2.4}{\376\377\000"\004\042\004\060\004\071\004\073\004\070\004\075\004\063\000"\000\040\004\062\000\040\000r\000i\000v\000e\000r}{subsection.1.14.2}% 161
\BOOKMARK [4][-]{paragraph.1.14.2.4.1}{\376\377\004\035\004\060\004\101\004\102\004\100\004\076\004\071\004\072\004\060\000\040\004\077\004\060\004\100\004\060\004\074\004\065\004\102\004\100\004\076\004\062\000\040\000r\000i\000v\000e\000r\000t\000i\000l\000e}{subsubsection.1.14.2.4}% 162
\BOOKMARK [4][-]{paragraph.1.14.2.4.2}{\376\377\004\022\004\067\004\060\004\070\004\074\004\076\004\064\004\065\004\071\004\101\004\102\004\062\004\070\004\065\000\040\004\101\000\040\004\076\004\072\004\075\004\060\004\074\004\070}{subsubsection.1.14.2.4}% 163
\BOOKMARK [4][-]{paragraph.1.14.2.4.3}{\376\377\004\043\004\077\004\100\004\060\004\062\004\073\004\065\004\075\004\070\004\065\000\040\004\100\004\060\004\067\004\074\004\065\004\100\004\060\004\074\004\070\000\040\004\076\004\072\004\076\004\075}{subsubsection.1.14.2.4}% 164
\BOOKMARK [3][-]{subsubsection.1.14.2.5}{\376\377\004\035\004\060\004\101\004\102\004\100\004\076\004\071\004\072\004\060\000\040\000t\000a\000g\000s\000\040\000\050\004\100\004\060\004\061\004\076\004\107\004\070\004\105\000\040\004\101\004\102\004\076\004\073\004\076\004\062\000\051}{subsection.1.14.2}% 165
\BOOKMARK [3][-]{subsubsection.1.14.2.6}{\376\377\004\035\004\060\004\101\004\102\004\100\004\076\004\071\004\072\004\060\000\040\004\115\004\072\004\100\004\060\004\075\004\076\004\062\000\050\004\074\004\076\004\075\004\070\004\102\004\076\004\100\004\076\004\062\000\051}{subsection.1.14.2}% 166
\BOOKMARK [3][-]{subsubsection.1.14.2.7}{\376\377\004\035\004\060\004\101\004\102\004\100\004\076\004\071\004\072\004\060\000\040\004\103\004\077\004\100\004\060\004\062\004\073\004\065\004\075\004\070\004\117\000\040\004\077\004\100\004\076\004\063\004\100\004\060\004\074\004\074\004\060\004\074\004\070\000\040\000/\000\040\004\077\004\100\004\070\004\073\004\076\004\066\004\065\004\075\004\070\004\117\004\074\004\070}{subsection.1.14.2}% 167
\BOOKMARK [4][-]{paragraph.1.14.2.7.1}{\376\377\004\024\004\076\004\061\004\060\004\062\004\070\004\102\004\114\000\040\004\077\004\100\004\060\004\062\004\070\004\073\004\076}{subsubsection.1.14.2.7}% 168
\BOOKMARK [5][-]{subparagraph*.50}{\376\377\004\037\004\100\004\060\004\062\004\070\004\073\004\076\000\040\004\076\004\077\004\100\004\065\004\064\004\065\004\073\004\117\004\116\004\111\004\065\004\065\000\040\000t\000a\000g\000\040\004\064\004\073\004\117\000\040\004\077\004\100\004\076\004\063\004\100\004\060\004\074\004\074\004\113}{paragraph.1.14.2.7.1}% 169
\BOOKMARK [5][-]{subparagraph*.51}{\376\377\004\037\004\100\004\060\004\062\004\070\004\073\004\076\000\040\004\076\004\077\004\100\004\065\004\064\004\065\004\073\004\117\004\116\004\111\004\065\004\065\000\040\004\074\004\076\004\075\004\070\004\102\004\076\004\100\000\040\004\064\004\073\004\117\000\040\004\077\004\100\004\076\004\063\004\100\004\060\004\074\004\074\004\113}{paragraph.1.14.2.7.1}% 170
\BOOKMARK [5][-]{subparagraph*.52}{\376\377\004\037\004\100\004\060\004\062\004\070\004\073\004\076\000\040\004\100\004\065\004\063\004\103\004\073\004\070\004\100\004\103\004\116\004\111\004\065\004\065\000\040\004\076\004\102\004\076\004\061\004\100\004\060\004\066\004\065\004\075\004\070\004\065\000\040\004\077\004\100\004\076\004\063\004\100\004\060\004\074\004\074\004\113\000\040\004\062\000\040\004\077\004\076\004\073\004\075\004\076\004\115\004\072\004\100\004\060\004\075\004\075\004\076\004\074\000\040\004\100\004\065\004\066\004\070\004\074\004\065}{paragraph.1.14.2.7.1}% 171
\BOOKMARK [5][-]{subparagraph*.53}{\376\377\004\037\004\100\004\060\004\062\004\070\004\073\004\076\000\040\004\064\004\073\004\117\000\040\004\077\004\073\004\060\004\062\004\060\004\116\004\111\004\065\004\063\004\076\000\040\004\076\004\072\004\075\004\060}{paragraph.1.14.2.7.1}% 172
\BOOKMARK [5][-]{subparagraph*.54}{\376\377\004\037\004\100\004\060\004\062\004\070\004\073\004\060\000\040\004\100\004\060\004\067\004\074\004\065\004\100\004\060\000\040\004\070\000\040\004\100\004\060\004\101\004\077\004\076\004\073\004\076\004\066\004\065\004\075\004\070\004\117}{paragraph.1.14.2.7.1}% 173
\BOOKMARK [5][-]{subparagraph*.55}{\376\377\004\037\004\100\004\060\004\062\004\070\004\073\004\076\000\040\004\076\004\102\004\062\004\065\004\107\004\060\004\116\004\111\004\065\004\065\000\040\004\067\004\060\000\040\000t\000e\000a\000r\000i\000n\000g}{paragraph.1.14.2.7.1}% 174
\BOOKMARK [5][-]{subparagraph*.56}{\376\377\004\037\004\100\004\060\004\062\004\070\004\073\004\076\000\040\004\103\004\072\004\060\004\067\004\113\004\062\004\060\004\116\004\111\004\065\004\065\000\040\004\075\004\060\000\040\004\103\004\077\004\100\004\060\004\062\004\073\004\117\004\116\004\111\004\065\004\063\004\076\000\040\004\077\004\076\000\040\004\064\004\065\004\072\004\076\004\100\004\060\004\106\004\070\004\117\004\074\000\040\004\076\004\072\004\075\004\060}{paragraph.1.14.2.7.1}% 175
\BOOKMARK [5][-]{subparagraph*.57}{\376\377\004\035\004\060\004\101\004\102\004\100\004\076\004\071\004\072\004\060\000\040\004\062\004\075\004\065\004\110\004\075\004\065\004\063\004\076\000\040\004\062\004\070\004\064\004\060\000\040\000r\000i\000v\000e\000r}{paragraph.1.14.2.7.1}% 176
\BOOKMARK [5][-]{subparagraph*.58}{\376\377\004\035\004\060\004\101\004\102\004\100\004\076\004\071\004\072\004\070\000\040\004\064\004\073\004\117\000\040\004\072\004\103\004\100\004\101\004\076\004\100\004\060}{paragraph.1.14.2.7.1}% 177
\BOOKMARK [4][-]{paragraph.1.14.2.7.2}{\376\377\004\043\004\064\004\060\004\073\004\065\004\075\004\070\004\065\000\040\004\077\004\100\004\060\004\062\004\070\004\073}{subsubsection.1.14.2.7}% 178
\BOOKMARK [4][-]{paragraph.1.14.2.7.3}{\376\377\004\037\004\100\004\076\004\101\004\074\004\076\004\102\004\100\000\040\004\067\004\060\004\064\004\060\004\075\004\075\004\113\004\105\000\040\004\077\004\100\004\060\004\062\004\070\004\073}{subsubsection.1.14.2.7}% 179
\BOOKMARK [3][-]{subsubsection.1.14.2.8}{\376\377\004\036\004\101\004\076\004\061\004\113\004\065\000\040\004\100\004\065\004\066\004\070\004\074\004\113\000\040\000/\000\040\004\101\004\076\004\061\004\113\004\102\004\070\004\117\000\040\004\062\000\040\000r\000i\000v\000e\000r}{subsection.1.14.2}% 180
\BOOKMARK [3][-]{subsubsection.1.14.2.9}{\376\377\004\037\004\060\004\100\004\060\004\074\004\065\004\102\004\100\004\113\000\040\004\064\004\073\004\117\000\040\004\075\004\060\004\101\004\102\004\100\004\076\004\071\004\072\004\070\000\040\004\103\004\101\004\102\004\100\004\076\004\071\004\101\004\102\004\062\000\040\004\062\004\062\004\076\004\064\004\060}{subsection.1.14.2}% 181
\BOOKMARK [3][-]{subsubsection.1.14.2.10}{\376\377\004\035\004\060\004\101\004\102\004\100\004\076\004\071\004\072\004\060\000\040\004\103\004\062\004\065\004\064\004\076\004\074\004\073\004\065\004\075\004\070\004\071}{subsection.1.14.2}% 182
\BOOKMARK [3][-]{subsubsection.1.14.2.11}{\376\377\004\037\004\060\004\075\004\065\004\073\004\114\000\040\000\050\000s\000t\000a\000t\000u\000s\000\040\000b\000a\000r\000\051}{subsection.1.14.2}% 183
\BOOKMARK [3][-]{subsubsection.1.14.2.12}{\376\377\004\034\004\065\004\075\004\116\000\040\004\067\004\060\004\077\004\103\004\101\004\072\004\060\000\040\004\077\004\100\004\070\004\073\004\076\004\066\004\065\004\075\004\070\004\071}{subsection.1.14.2}% 184
\BOOKMARK [3][-]{subsubsection.1.14.2.13}{\376\377\004\021\004\073\004\076\004\072\004\070\004\100\004\076\004\062\004\072\004\060\000\040\004\115\004\072\004\100\004\060\004\075\004\060}{subsection.1.14.2}% 185
\BOOKMARK [0][-]{section*.59}{\376\377\004\020\004\073\004\104\004\060\004\062\004\070\004\102\004\075\004\113\004\071\000\040\004\103\004\072\004\060\004\067\004\060\004\102\004\065\004\073\004\114}{}% 186
