# Fdb version 4
["makeindex ARU.idx"] 1740584796 "ARU.idx" "ARU.ind" "ARU" 1740584831 0
  "ARU.idx" 1740584831 22133 c99fd312772be9c3c204d952d889baa4 "pdflatex"
  (generated)
  "ARU.ilg"
  "ARU.ind"
  (rewritten before read)
["pdflatex"] 1740584813 "ARU.tex" "ARU.pdf" "ARU" 1740584831 0
  "/etc/texmf/web2c/texmf.cnf" 1740185831 475 c0e671620eb5563b2130f56340a5fde8 ""
  "/usr/share/texlive/texmf-dist/fonts/tfm/adobe/zapfding/pzdr.tfm" 1136768653 1528 f853c4d1b4e0550255e02831fdc8496f ""
  "/usr/share/texlive/texmf-dist/fonts/tfm/public/amsfonts/cmextra/cmex7.tfm" 1246382020 1004 54797486969f23fa377b128694d548df ""
  "/usr/share/texlive/texmf-dist/fonts/tfm/public/amsfonts/cmextra/cmex8.tfm" 1246382020 988 bdf658c3bfc2d96d3c8b02cfc1c94c20 ""
  "/usr/share/texlive/texmf-dist/fonts/tfm/public/amsfonts/symbols/msam10.tfm" 1246382020 916 f87d7c45f9c908e672703b83b72241a3 ""
  "/usr/share/texlive/texmf-dist/fonts/tfm/public/amsfonts/symbols/msam5.tfm" 1246382020 924 9904cf1d39e9767e7a3622f2a125a565 ""
  "/usr/share/texlive/texmf-dist/fonts/tfm/public/amsfonts/symbols/msam7.tfm" 1246382020 928 2dc8d444221b7a635bb58038579b861a ""
  "/usr/share/texlive/texmf-dist/fonts/tfm/public/amsfonts/symbols/msbm10.tfm" 1246382020 908 2921f8a10601f252058503cc6570e581 ""
  "/usr/share/texlive/texmf-dist/fonts/tfm/public/amsfonts/symbols/msbm5.tfm" 1246382020 940 75ac932a52f80982a9f8ea75d03a34cf ""
  "/usr/share/texlive/texmf-dist/fonts/tfm/public/amsfonts/symbols/msbm7.tfm" 1246382020 940 228d6584342e91276bf566bcf9716b83 ""
  "/usr/share/texlive/texmf-dist/fonts/tfm/public/cm/cmex10.tfm" 1136768653 992 662f679a0b3d2d53c1b94050fdaa3f50 ""
  "/usr/share/texlive/texmf-dist/fonts/tfm/public/cm/cmmi12.tfm" 1136768653 1524 4414a8315f39513458b80dfc63bff03a ""
  "/usr/share/texlive/texmf-dist/fonts/tfm/public/cm/cmmi6.tfm" 1136768653 1512 f21f83efb36853c0b70002322c1ab3ad ""
  "/usr/share/texlive/texmf-dist/fonts/tfm/public/cm/cmmi8.tfm" 1136768653 1520 eccf95517727cb11801f4f1aee3a21b4 ""
  "/usr/share/texlive/texmf-dist/fonts/tfm/public/cm/cmr12.tfm" 1136768653 1288 655e228510b4c2a1abe905c368440826 ""
  "/usr/share/texlive/texmf-dist/fonts/tfm/public/cm/cmr17.tfm" 1136768653 1292 296a67155bdbfc32aa9c636f21e91433 ""
  "/usr/share/texlive/texmf-dist/fonts/tfm/public/cm/cmr6.tfm" 1136768653 1300 b62933e007d01cfd073f79b963c01526 ""
  "/usr/share/texlive/texmf-dist/fonts/tfm/public/cm/cmr8.tfm" 1136768653 1292 21c1c5bfeaebccffdb478fd231a0997d ""
  "/usr/share/texlive/texmf-dist/fonts/tfm/public/cm/cmsy10.tfm" 1136768653 1124 6c73e740cf17375f03eec0ee63599741 ""
  "/usr/share/texlive/texmf-dist/fonts/tfm/public/cm/cmsy6.tfm" 1136768653 1116 933a60c408fc0a863a92debe84b2d294 ""
  "/usr/share/texlive/texmf-dist/fonts/tfm/public/cm/cmsy8.tfm" 1136768653 1120 8b7d695260f3cff42e636090a8002094 ""
  "/usr/share/texlive/texmf-dist/tex/generic/atbegshi/atbegshi.sty" 1575674566 24708 5584a51a7101caf7e6bbf1fc27d8f7b1 ""
  "/usr/share/texlive/texmf-dist/tex/generic/bigintcalc/bigintcalc.sty" 1576625341 40635 c40361e206be584d448876bba8a64a3b ""
  "/usr/share/texlive/texmf-dist/tex/generic/bitset/bitset.sty" 1576016050 33961 6b5c75130e435b2bfdb9f480a09a39f9 ""
  "/usr/share/texlive/texmf-dist/tex/generic/etexcmds/etexcmds.sty" 1576625273 7734 b98cbb34c81f667027c1e3ebdbfce34b ""
  "/usr/share/texlive/texmf-dist/tex/generic/gettitlestring/gettitlestring.sty" 1576625223 8371 9d55b8bd010bc717624922fb3477d92e ""
  "/usr/share/texlive/texmf-dist/tex/generic/iftex/iftex.sty" 1644112042 7237 bdd120a32c8fdb4b433cf9ca2e7cd98a ""
  "/usr/share/texlive/texmf-dist/tex/generic/iftex/ifvtex.sty" 1572645307 1057 525c2192b5febbd8c1f662c9468335bb ""
  "/usr/share/texlive/texmf-dist/tex/generic/infwarerr/infwarerr.sty" 1575499628 8356 7bbb2c2373aa810be568c29e333da8ed ""
  "/usr/share/texlive/texmf-dist/tex/generic/intcalc/intcalc.sty" 1576625065 31769 002a487f55041f8e805cfbf6385ffd97 ""
  "/usr/share/texlive/texmf-dist/tex/generic/kvdefinekeys/kvdefinekeys.sty" 1576878844 5412 d5a2436094cd7be85769db90f29250a6 ""
  "/usr/share/texlive/texmf-dist/tex/generic/ltxcmds/ltxcmds.sty" 1600895880 17859 4409f8f50cd365c68e684407e5350b1b ""
  "/usr/share/texlive/texmf-dist/tex/generic/pdfescape/pdfescape.sty" 1576015897 19007 15924f7228aca6c6d184b115f4baa231 ""
  "/usr/share/texlive/texmf-dist/tex/generic/pdftexcmds/pdftexcmds.sty" 1593379760 20089 80423eac55aa175305d35b49e04fe23b ""
  "/usr/share/texlive/texmf-dist/tex/generic/stringenc/stringenc.sty" 1575152242 21514 b7557edcee22835ef6b03ede1802dad4 ""
  "/usr/share/texlive/texmf-dist/tex/generic/uniquecounter/uniquecounter.sty" 1576624663 7008 f92eaa0a3872ed622bbf538217cd2ab7 ""
  "/usr/share/texlive/texmf-dist/tex/generic/xkeyval/keyval.tex" 1655411236 2725 1a42bd9e7e57e25fc7763c445f4b785b ""
  "/usr/share/texlive/texmf-dist/tex/generic/xkeyval/xkeyval.tex" 1655411236 19231 27205ee17aaa2902aea3e0c07a3cfc65 ""
  "/usr/share/texlive/texmf-dist/tex/generic/xkeyval/xkvutils.tex" 1655411236 7677 9cb1a74d945bc9331f2181c0a59ff34a ""
  "/usr/share/texlive/texmf-dist/tex/latex/amsfonts/amsfonts.sty" 1359763108 5949 3f3fd50a8cc94c3d4cbf4fc66cd3df1c ""
  "/usr/share/texlive/texmf-dist/tex/latex/amsfonts/amssymb.sty" 1359763108 13829 94730e64147574077f8ecfea9bb69af4 ""
  "/usr/share/texlive/texmf-dist/tex/latex/amsfonts/umsa.fd" 1359763108 961 6518c6525a34feb5e8250ffa91731cff ""
  "/usr/share/texlive/texmf-dist/tex/latex/amsfonts/umsb.fd" 1359763108 961 d02606146ba5601b5645f987c92e6193 ""
  "/usr/share/texlive/texmf-dist/tex/latex/amsmath/amsbsy.sty" 1654720880 2222 78b930a5a6e3dc2ac69b78c2057b94d7 ""
  "/usr/share/texlive/texmf-dist/tex/latex/amsmath/amsgen.sty" 1654720880 4173 c989ee3ced31418e3593916ab26c793a ""
  "/usr/share/texlive/texmf-dist/tex/latex/amsmath/amsmath.sty" 1654720880 88393 1adf6fa3f245270d06e3d4f8910f7fc5 ""
  "/usr/share/texlive/texmf-dist/tex/latex/amsmath/amsopn.sty" 1654720880 4474 f04cd1cc7bd76eb033e6fb12eb6a0d77 ""
  "/usr/share/texlive/texmf-dist/tex/latex/amsmath/amstext.sty" 1654720880 2444 70065bddd85997dc1fd0bb7ae634e5fa ""
  "/usr/share/texlive/texmf-dist/tex/latex/atveryend/atveryend.sty" 1576191570 19336 ce7ae9438967282886b3b036cfad1e4d ""
  "/usr/share/texlive/texmf-dist/tex/latex/auxhook/auxhook.sty" 1576625391 3935 57aa3c3e203a5c2effb4d2bd2efbc323 ""
  "/usr/share/texlive/texmf-dist/tex/latex/base/alltt.sty" 1654720880 3137 837d2e4f1defd7c190a44408f494ec95 ""
  "/usr/share/texlive/texmf-dist/tex/latex/base/atbegshi-ltx.sty" 1667332637 3052 30236f0cc243a8651b82240dfd2e8b9d ""
  "/usr/share/texlive/texmf-dist/tex/latex/base/atveryend-ltx.sty" 1667332637 2462 8ce5f9a9c63002f2c1af03c262cf29af ""
  "/usr/share/texlive/texmf-dist/tex/latex/base/fontenc.sty" 1654720880 5119 4ce42f43368f652f9c9522d943cce8e4 ""
  "/usr/share/texlive/texmf-dist/tex/latex/base/makeidx.sty" 1654720880 1939 6ddbd9091294c45e7eac2e9cff8994ff ""
  "/usr/share/texlive/texmf-dist/tex/latex/base/report.cls" 1667332637 23203 3d69f4661dd74a5edb1507ff18e40fb9 ""
  "/usr/share/texlive/texmf-dist/tex/latex/base/size10.clo" 1667332637 8448 c33a4e1cb35cee9b33c2b21033b73e39 ""
  "/usr/share/texlive/texmf-dist/tex/latex/base/textcomp.sty" 1654720880 2894 f2f8ee7d4fb94263f9f255fa22cab2d3 ""
  "/usr/share/texlive/texmf-dist/tex/latex/base/ts1cmr.fd" 1667332637 2430 8418b3f1835e588625becbcac4dbce56 ""
  "/usr/share/texlive/texmf-dist/tex/latex/base/tuenc.def" 1654720880 26445 9ed4a9401f29cbb58ef6909cd5aec01f ""
  "/usr/share/texlive/texmf-dist/tex/latex/booktabs/booktabs.sty" 1579038678 6078 f1cb470c9199e7110a27851508ed7a5c ""
  "/usr/share/texlive/texmf-dist/tex/latex/capt-of/capt-of.sty" 1264379041 1311 063f8536a047a2d9cb1803321f793f37 ""
  "/usr/share/texlive/texmf-dist/tex/latex/cmap/cmap.sty" 1612650595 3574 ddc11a0ae1c579d351ed20d2319ad422 ""
  "/usr/share/texlive/texmf-dist/tex/latex/colortbl/colortbl.sty" 1659300143 12441 3b2a708337608012a865c7d9b7f05d28 ""
  "/usr/share/texlive/texmf-dist/tex/latex/ellipse/ellipse.sty" 1449445679 9937 7eb94c47265a0108f7a319db3c3b58b0 ""
  "/usr/share/texlive/texmf-dist/tex/latex/etoolbox/etoolbox.sty" 1601931149 46845 3b58f70c6e861a13d927bff09d35ecbc ""
  "/usr/share/texlive/texmf-dist/tex/latex/fancyhdr/fancyhdr.sty" 1668028059 18450 88279bf67c81e69f8e3f1c1bad1a26c5 ""
  "/usr/share/texlive/texmf-dist/tex/latex/fancyvrb/fancyvrb.sty" 1674162139 43712 b5e8951fc13f42e748a253743534321f ""
  "/usr/share/texlive/texmf-dist/tex/latex/float/float.sty" 1137110151 6749 16d2656a1984957e674b149555f1ea1d ""
  "/usr/share/texlive/texmf-dist/tex/latex/fncychap/fncychap.sty" 1292029257 19488 fdd52eb173b3197d748e1ec25acb042f ""
  "/usr/share/texlive/texmf-dist/tex/latex/fontawesome5/fontawesome5-utex-helper.sty" 1651520503 5272 112d4d28aabeaf80b024579d24539fa6 ""
  "/usr/share/texlive/texmf-dist/tex/latex/fontawesome5/fontawesome5.sty" 1651520503 8112 16dbb19fca3f2df864fea49874356f35 ""
  "/usr/share/texlive/texmf-dist/tex/latex/fontawesome5/tufontawesomebrands.fd" 1651520503 1252 7d3d048ff49487829dda03827af0f823 ""
  "/usr/share/texlive/texmf-dist/tex/latex/fontawesome5/tufontawesomefree.fd" 1651520503 1075 f2a667118f91efc0123417dfb6a39807 ""
  "/usr/share/texlive/texmf-dist/tex/latex/fontspec/fontspec-xetex.sty" 1642282977 162076 2f6d31c4632f2730c57b9c0fda038e15 ""
  "/usr/share/texlive/texmf-dist/tex/latex/fontspec/fontspec.cfg" 1532898934 549 c4adac819276241fea8eb79c5ab7b99e ""
  "/usr/share/texlive/texmf-dist/tex/latex/fontspec/fontspec.sty" 1642282977 1656 7e824878bad4df5a3e8bba4e463d9126 ""
  "/usr/share/texlive/texmf-dist/tex/latex/framed/framed.sty" 1338588508 22449 7ec15c16d0d66790f28e90343c5434a3 ""
  "/usr/share/texlive/texmf-dist/tex/latex/geometry/geometry.sty" 1578002852 41601 9cf6c5257b1bc7af01a58859749dd37a ""
  "/usr/share/texlive/texmf-dist/tex/latex/graphics-cfg/color.cfg" 1459978653 1213 620bba36b25224fa9b7e1ccb4ecb76fd ""
  "/usr/share/texlive/texmf-dist/tex/latex/graphics-cfg/graphics.cfg" 1465944070 1224 978390e9c2234eab29404bc21b268d1e ""
  "/usr/share/texlive/texmf-dist/tex/latex/graphics-def/xetex.def" 1663965824 14788 1dde73f396dd97d88c838bee2a352abe ""
  "/usr/share/texlive/texmf-dist/tex/latex/graphics/color.sty" 1654720880 7233 e46ce9241d2b2ca2a78155475fdd557a ""
  "/usr/share/texlive/texmf-dist/tex/latex/graphics/graphics.sty" 1654720880 18387 8f900a490197ebaf93c02ae9476d4b09 ""
  "/usr/share/texlive/texmf-dist/tex/latex/graphics/graphicx.sty" 1654720880 8010 a8d949cbdbc5c983593827c9eec252e1 ""
  "/usr/share/texlive/texmf-dist/tex/latex/graphics/keyval.sty" 1654720880 2671 7e67d78d9b88c845599a85b2d41f2e39 ""
  "/usr/share/texlive/texmf-dist/tex/latex/graphics/mathcolor.ltx" 1667332637 2885 9c645d672ae17285bba324998918efd8 ""
  "/usr/share/texlive/texmf-dist/tex/latex/graphics/trig.sty" 1654720880 4023 293ea1c16429fc0c4cf605f4da1791a9 ""
  "/usr/share/texlive/texmf-dist/tex/latex/hycolor/hycolor.sty" 1580250785 17914 4c28a13fc3d975e6e81c9bea1d697276 ""
  "/usr/share/texlive/texmf-dist/tex/latex/hyperref/hxetex.def" 1668456740 44472 52b5c422702633e09b2d0fb48ddcec1a ""
  "/usr/share/texlive/texmf-dist/tex/latex/hyperref/hyperref.sty" 1668456740 222727 cfc4e76008392378678e691ec73ef8f0 ""
  "/usr/share/texlive/texmf-dist/tex/latex/hyperref/nameref.sty" 1668456740 12947 2cb391007415dfa63f4c5ba1610afddb ""
  "/usr/share/texlive/texmf-dist/tex/latex/hyperref/pd1enc.def" 1668456740 14249 c27c0c7065e940126403e065c08683b6 ""
  "/usr/share/texlive/texmf-dist/tex/latex/hyperref/puenc.def" 1668456740 117125 a8ce97e3b03f76decc5ad7e8d4da3088 ""
  "/usr/share/texlive/texmf-dist/tex/latex/kvoptions/kvoptions.sty" 1655478651 22555 6d8e155cfef6d82c3d5c742fea7c992e ""
  "/usr/share/texlive/texmf-dist/tex/latex/kvsetkeys/kvsetkeys.sty" 1665067230 13815 760b0c02f691ea230f5359c4e1de23a7 ""
  "/usr/share/texlive/texmf-dist/tex/latex/l3backend/l3backend-xetex.def" 1673989714 32346 879686206fa618f4f5073ad4bd48feda ""
  "/usr/share/texlive/texmf-dist/tex/latex/l3kernel/expl3.sty" 1673989714 6107 5b9ef4da92c9847f7480454f61dace5d ""
  "/usr/share/texlive/texmf-dist/tex/latex/l3packages/l3keys2e/l3keys2e.sty" 1673989714 4674 02131cfba2d71c76972518a70a5967a8 ""
  "/usr/share/texlive/texmf-dist/tex/latex/l3packages/xparse/xparse.sty" 1673989714 6812 15bc6b0b734bc50fd1694a0947c28886 ""
  "/usr/share/texlive/texmf-dist/tex/latex/letltxmacro/letltxmacro.sty" 1575499565 5766 13a9e8766c47f30327caf893ece86ac8 ""
  "/usr/share/texlive/texmf-dist/tex/latex/makecmds/makecmds.sty" 1252026102 2296 b097750ac8010251101d5bbe1da4d1be ""
  "/usr/share/texlive/texmf-dist/tex/latex/needspace/needspace.sty" 1364856750 852 0e34dbb72efc69fa07602405ad95585e ""
  "/usr/share/texlive/texmf-dist/tex/latex/oberdiek/hypcap.sty" 1575152444 3822 b53c749cd81352b4679a35b0dafefb95 ""
  "/usr/share/texlive/texmf-dist/tex/latex/parskip/parskip.sty" 1615762720 4288 94714aa7f535440f33181fec52a31963 ""
  "/usr/share/texlive/texmf-dist/tex/latex/pict2e/p2e-xetex.def" 1454715303 1084 e2b9095f6e61ea512884e17c8812803a ""
  "/usr/share/texlive/texmf-dist/tex/latex/pict2e/pict2e.cfg" 1454715303 1920 2185073db458618f4a8a794158cf3681 ""
  "/usr/share/texlive/texmf-dist/tex/latex/pict2e/pict2e.sty" 1601586370 30933 ccdcd551eb516817cc8f41862254e6e7 ""
  "/usr/share/texlive/texmf-dist/tex/latex/polyglossia/babelsh.def" 1658175224 21082 3cb177d86ff917ce880342b1c076e85b ""
  "/usr/share/texlive/texmf-dist/tex/latex/polyglossia/gloss-latex.lde" 1669756253 945 5e48d4fbd8ee2888b1284716d5af692e ""
  "/usr/share/texlive/texmf-dist/tex/latex/polyglossia/gloss-russian.ldf" 1669756253 11603 9bd79af51f7901c3b3c1537d8ffe70e9 ""
  "/usr/share/texlive/texmf-dist/tex/latex/polyglossia/polyglossia.sty" 1669756253 81173 4e028df1a103c6219de64255fea5c0cb ""
  "/usr/share/texlive/texmf-dist/tex/latex/polyglossia/xpg-cyrillicnumbers.sty" 1573854094 3630 0f05eb6198a0be5fe2fdd0b87f742f71 ""
  "/usr/share/texlive/texmf-dist/tex/latex/refcount/refcount.sty" 1576624809 9878 9e94e8fa600d95f9c7731bb21dfb67a4 ""
  "/usr/share/texlive/texmf-dist/tex/latex/rerunfilecheck/rerunfilecheck.sty" 1657483315 9714 ba3194bd52c8499b3f1e3eb91d409670 ""
  "/usr/share/texlive/texmf-dist/tex/latex/tabulary/tabulary.sty" 1403566480 13791 8c83287d79183c3bf58fd70871e8a70b ""
  "/usr/share/texlive/texmf-dist/tex/latex/titlesec/titlesec.sty" 1625518490 48833 3b7b4cfab1a3d15596bfd3772a77ab65 ""
  "/usr/share/texlive/texmf-dist/tex/latex/tools/array.sty" 1667332637 12691 5b542990fe866f3d772f71346cf85b95 ""
  "/usr/share/texlive/texmf-dist/tex/latex/tools/longtable.sty" 1654720880 12892 af5f5e872a6e322f3e5ba2c881288a56 ""
  "/usr/share/texlive/texmf-dist/tex/latex/tools/multicol.sty" 1654720880 32329 5d201ab4b4c773e7c876c2a052b07be3 ""
  "/usr/share/texlive/texmf-dist/tex/latex/upquote/upquote.sty" 1334873510 1048 517e01cde97c1c0baf72e69d43aa5a2e ""
  "/usr/share/texlive/texmf-dist/tex/latex/url/url.sty" 1388531844 12796 8edb7d69a20b857904dd0ea757c14ec9 ""
  "/usr/share/texlive/texmf-dist/tex/latex/varwidth/varwidth.sty" 1238697683 10894 d359a13923460b2a73d4312d613554c8 ""
  "/usr/share/texlive/texmf-dist/tex/latex/wrapfig/wrapfig.sty" 1137111090 26220 3701aebf80ccdef248c0c20dd062fea9 ""
  "/usr/share/texlive/texmf-dist/tex/latex/xcolor/xcolor.sty" 1655066402 56148 51a9a8571c07b9921892ae11063ae853 ""
  "/usr/share/texlive/texmf-dist/tex/latex/xkeyval/xkeyval.sty" 1655411236 4937 4ce600ce9bd4ec84d0250eb6892fcf4f ""
  "/usr/share/texlive/texmf-dist/web2c/texmf.cnf" 1681034085 39561 34c98e380bf7c7201ee6a7909aff625a ""
  "/usr/share/texmf/web2c/texmf.cnf" 1681034085 39561 34c98e380bf7c7201ee6a7909aff625a ""
  "/var/lib/texmf/web2c/xetex/xelatex.fmt" 1740185851 8713364 3de28c588e6c3810c0eed027b4a9e19f ""
  "ARU.aux" 1740584831 122554 d11f1f80e019bc1ae8092db406d405ac "pdflatex"
  "ARU.ind" 1740584797 14810 38bfb9bd0bf1ee72a5fef893443c0a6b "makeindex ARU.idx"
  "ARU.out" 1740584831 49063 aa5316de364938216894f8840425ea77 "pdflatex"
  "ARU.tex" 1740584780 812547 da1c2238d1be19233bf537f69462be6c ""
  "ARU.toc" 1740584831 22541 ec050e46bd3bc59227511dd31e9bddfb "pdflatex"
  "cinnamon-prime.png" 1740584743 22742 b31a73f5b3586285148a1f397d090ec1 ""
  "compsize.png" 1740584743 15740 3fe2494a7fee72c9ada4a238f657d257 ""
  "file-systems-1.png" 1740584743 21014 08ec4a9a4fe45b8aaac3963e0a805b9e ""
  "first-steps-1.png" 1740584743 430775 a432c6aca0e1b691f9538558e77b50d5 ""
  "generic-system-acceleration-4.png" 1740584743 209006 289bae55e14be79401a94dbe70fac836 ""
  "image12.png" 1639214235 147220 42a52bb33f8fb84225c4f766792a820d ""
  "image3.png" 1639214235 88332 3b1a370a1759dae785b03358a9d73b95 ""
  "image8.png" 1639214235 92493 f881cda6cd6c3df7d2d8b83686dbf130 ""
  "image9.png" 1639214235 138687 1e56d512b0c1250a5e7dc2da0a0bd123 ""
  "lutris-auth-epic-icon.png" 1740584743 38515 6cfaba7631178d5f42694bb3c1e97f93 ""
  "lutris-auth-icon.png" 1740584743 43570 bb9fac5444f35dcdeade27f806aa2fde ""
  "lutris-context-menu.png" 1740584743 140384 acf837b68b949a59693047635c15f079 ""
  "lutris-dxvk-1.png" 1740584743 79490 5cafa9952b2375645cc148e642036896 ""
  "lutris-epic-auth.png" 1740584743 25466 61365f6bdf96e5b53f435a34a7c822ee ""
  "lutris-epic-library.png" 1740584743 383939 f5cf04df650f847ae7bcd877bbdb58fe ""
  "lutris-game-options.png" 1740584743 40894 b38c7c17576e584ca00b122ded3b1b5d ""
  "lutris-gog-auth.png" 1740584743 17797 8ab31315434be1edf8662b8721252e1a ""
  "lutris-gog-library.png" 1740584743 268051 a22a25073fcf087a80d8ea90e809167c ""
  "lutris-preferences.png" 1740584743 51329 a5dcc08a43b5160b2ef302b91904bb24 ""
  "lutris-prime.png" 1740584743 67592 3e94ab645bef95f431b2a5b746dd47fe ""
  "lutris-vkd3d-1.png" 1740584743 84825 11a9ba50a80b8ea3f7ba15606a81c785 ""
  "lutris.png" 1740584743 168477 f763b411cd5efe8bc6c1ec34bc0bf06d ""
  "page-cache.png" 1728298138 302754 81c2818860f8f8b874a519eafd784cf5 ""
  "piper-resolutionpage.png" 1740584779 44323 ba860f35d81e841abc36e0c270bb9299 ""
  "plasma-prime.jpg" 1740584743 75401 97af1a84a240c244b3fdaab01f178eca ""
  "sphinx.sty" 1740185915 54203 ee7fe875437470f5328ee20661bb9f1d ""
  "sphinxhighlight.sty" 1740584778 7553 83fb52292c17957d9f4aadcb28c57a87 ""
  "sphinxlatexadmonitions.sty" 1740185915 19111 5e67a0f91439018bceb7cadf319345e6 ""
  "sphinxlatexcontainers.sty" 1740185915 900 d61f923db071a7b54d3cee8a1e6935d3 ""
  "sphinxlatexgraphics.sty" 1740185915 4918 c9266041d02bc615d54b890e96e3acd3 ""
  "sphinxlatexindbibtoc.sty" 1740185915 2065 1f1f215c304208004fc0522855b3b127 ""
  "sphinxlatexlists.sty" 1740185915 5138 98bcb41aa6ecb6cc5c1a6a7c936cb8a8 ""
  "sphinxlatexliterals.sty" 1740185915 45860 fa61a279a7f157481590da017e0c6962 ""
  "sphinxlatexnumfig.sty" 1740185915 5419 aeaffe9a9d596e3663201bb873b06758 ""
  "sphinxlatexobjects.sty" 1740185915 15707 bc327ee938baefa281deb478d03161c7 ""
  "sphinxlatexshadowbox.sty" 1740185915 8437 cec78b6bb66e95d214da9fd42b1af598 ""
  "sphinxlatexstyleheadings.sty" 1740185915 3742 2a2cc6aa695b2f8c98eb9ee104e5fc6f ""
  "sphinxlatexstylepage.sty" 1740185915 2671 e63daf3b9f0f8a387a8b4ba09c515982 ""
  "sphinxlatexstyletext.sty" 1740185915 6759 9e932c65374cfb62686485d331bc975c ""
  "sphinxlatextables.sty" 1740185915 57643 7f1013c2fa11942370d867527bdda568 ""
  "sphinxmanual.cls" 1740185915 4241 7b0d7a37df7b5715fb0dbd585c52ecdb ""
  "sphinxmessages.sty" 1740584780 871 be54fa34be1dd5090a1441abfaf6d09d ""
  "sphinxoptionsgeometry.sty" 1740185915 2060 6c27b3eba37bde592ae8908ab2c1ac0f ""
  "sphinxoptionshyperref.sty" 1740185915 1093 e468489bae7631a7f387b4b0f7bc15d4 ""
  "sphinxpackageboxes.sty" 1740185915 36106 1be2053eb1cb9b083b3a75e3657bcb24 ""
  "sphinxpackagefootnote.sty" 1740185915 15330 2fb656b6ce8cd1f6aba2d1c508fb51e5 ""
  "steam-prime.png" 1740584743 47341 6a59aa01063f3a86985d5aa1e21f7ed2 ""
  "wine-regedit-1.png" 1740584743 55007 19ac656697998e869f10bd5ad22ca5bd ""
  "wine-regedit-2.png" 1740584743 46037 3e91a8ee910fc9ce848b38c215c23087 ""
  "winecfg-isolation-1.png" 1740584743 16598 94af317e0c770206673cac7a1f333e80 ""
  "winecfg-isolation-2.png" 1740584743 27543 b28051aebcb6baf7142351c6e1af2f4e ""
  "wxedid-fullrgb.png" 1740584743 121157 1fc69c1834006291e1e7264c2197b74b ""
  "wxedid-pixel-clock.png" 1740584743 76534 208d7959000da00163f8dd69db524b94 ""
  "zstd_19.png" 1740584743 76378 4764c8a532249f5c30cf6b6a5fdb5668 ""
  "zstd_3.png" 1740584743 76879 ec414356b8245fb9f9d3b6683d7a39a6 ""
  "zstd_8.png" 1740584743 76150 9a332df71fde0f40368fb93703e2c26b ""
  (generated)
  "ARU.aux"
  "ARU.idx"
  "ARU.log"
  "ARU.out"
  "ARU.pdf"
  "ARU.toc"
  (rewritten before read)
